0,0,1
14.05,0,1
17.01667,1,1
20.05,0,1
21.05,0,1
24.08333,1,1
26.03333,0,1
27.05,0,1
30,1,1
33.98333,0,1
40.96667,0,1
46.08333,1,0
49.98333,0,1
55.01667,1,0
59,0,1
62.96667,1,0
69.08334,0,1
74,1,0
76.96667,0,1
80.46667,0,1
83,0.25,1
85.76667,0,1
86.61667,0,1
89.55,0.5,1
93.3,0,1
94,0,1
96.53333,0.75,1
101.2333,0,1
101.4833,0,1
105.2667,1,1
109.6667,0,1
116,0,1
