00:01:17.5422486 -0.05835858,0.898679,-0.04140184, 53.72998, 73.19037, 43.78366
00:01:17.5502265 -0.05816188,0.8986257,-0.04143882, 53.70646, 73.20019, 43.68975
00:01:17.5621947 -0.05790659,0.8987442,-0.04150024, 53.71635, 73.18729, 43.61042
00:01:17.5731655 -0.05783193,0.8988248,-0.04140051, 53.66523, 73.20905, 43.59185
00:01:17.5841611 -0.05757201,0.8988903,-0.04131232, 53.57342, 73.21473, 43.62508
00:01:17.5961045 -0.05739694,0.8990404,-0.0413761, 53.48994, 73.18935, 43.55258
00:01:17.6070739 -0.05745179,0.899241,-0.04138348, 53.438, 73.08138, 43.41737
00:01:17.6180771 -0.05751289,0.8992476,-0.04138498, 53.41334, 72.97046, 43.25133
00:01:17.6300136 -0.05748942,0.8992804,-0.04129812, 53.42456, 72.89682, 43.12071
00:01:17.6399870 -0.05740983,0.8993326,-0.04132095, 53.39933, 72.8593, 43.07356
00:01:17.6529529 -0.05715529,0.8995698,-0.04140569, 53.36011, 72.8632, 43.081
00:01:17.6629264 -0.05716294,0.8995438,-0.04117692, 53.32354, 72.97594, 43.17519
00:01:17.6738961 -0.05716399,0.8994895,-0.04119846, 53.26122, 72.97169, 43.16957
00:01:17.6858642 -0.05715749,0.8995472,-0.04116144, 53.24183, 72.9929, 43.16992
00:01:17.6968340 -0.05715144,0.8996441,-0.04117367, 53.24196, 73.04346, 43.20312
00:01:17.7078055 -0.05705211,0.8997735,-0.04123278, 53.26175, 73.01641, 43.163
00:01:17.7188033 -0.05696063,0.9000039,-0.04128839, 53.24305, 72.94725, 43.01518
00:01:17.7307434 -0.0568743,0.9001253,-0.04114811, 53.15554, 72.83706, 42.79961
00:01:17.7427389 -0.05663092,0.9003014,-0.04107702, 53.02441, 72.72124, 42.58916
00:01:17.7527149 -0.05662113,0.9003621,-0.04096617, 52.92113, 72.63943, 42.40859
00:01:17.7656502 -0.05650159,0.9004645,-0.04084549, 52.79679, 72.53045, 42.20796
00:01:17.7756251 -0.05626344,0.9005141,-0.04076846, 52.71142, 72.5295, 42.11195
00:01:17.7865966 -0.05615006,0.9005467,-0.04075132, 52.66029, 72.6404, 42.10589
00:01:17.7975649 -0.05604821,0.9006509,-0.04083824, 52.62306, 72.75003, 42.07956
00:01:17.8075711 -0.05618146,0.9007583,-0.04102105, 52.60001, 72.83394, 42.08127
00:01:17.8195065 -0.0559789,0.9011948,-0.04096944, 52.52976, 72.80761, 41.99623
00:01:17.8304769 -0.05583098,0.9014048,-0.04096167, 52.39328, 72.62583, 41.7969
00:01:17.8414492 -0.05558088,0.901795,-0.04086754, 52.18184, 72.17368, 41.31349
00:01:17.8524193 -0.05547028,0.9021428,-0.04084556, 52.06953, 71.94895, 40.97983
00:01:17.8633897 -0.05519434,0.9023078,-0.04086818, 52.00414, 71.78117, 40.60503
00:01:17.8753575 -0.05489193,0.9026868,-0.04089181, 51.88992, 71.65046, 40.29037
00:01:17.8873268 -0.05457394,0.9030452,-0.04086103, 51.75217, 71.61108, 40.04536
00:01:17.8972991 -0.05409703,0.9035735,-0.04084807, 51.61282, 71.57689, 39.79922
00:01:17.9102643 -0.05371299,0.9040605,-0.04080227, 51.38036, 71.54382, 39.49853
00:01:17.9202564 -0.05329802,0.9046036,-0.04070567, 51.17297, 71.50978, 39.19085
00:01:17.9322220 -0.05284498,0.9054111,-0.04061295, 50.9179, 71.45151, 38.79486
00:01:17.9421779 -0.05246349,0.9061472,-0.04055301, 50.69773, 71.31864, 38.37856
00:01:17.9531494 -0.05229361,0.9068347,-0.04027308, 50.46626, 71.12283, 37.93373
00:01:17.9651231 -0.05196934,0.9080523,-0.03978876, 50.18168, 70.80028, 37.48933
00:01:17.9750900 -0.05138743,0.9090722,-0.03944046, 49.87161, 70.53007, 37.09438
00:01:17.9870596 -0.05068399,0.9103983,-0.03915369, 49.46068, 70.18134, 36.63029
00:01:17.9980297 -0.05016379,0.9115366,-0.03868289, 49.03477, 69.79334, 36.1372
00:01:18.0099982 -0.04957651,0.9127714,-0.03816046, 48.6283, 69.35905, 35.66893
00:01:18.0210033 -0.04899371,0.9140606,-0.03768124, 48.2449, 68.95224, 35.24199
00:01:18.0319395 -0.04839407,0.9152076,-0.03708524, 47.83721, 68.40192, 34.78875
00:01:18.0439066 -0.04775935,0.916517,-0.036453, 47.45975, 67.8929, 34.46539
00:01:18.0538807 -0.04719871,0.9178224,-0.035913, 47.08746, 67.51427, 34.27466
00:01:18.0648519 -0.04668972,0.9192587,-0.03542017, 46.69475, 67.25841, 34.35131
00:01:18.0768190 -0.0457921,0.920743,-0.03474866, 46.18738, 67.03128, 34.51995
00:01:18.0887861 -0.04520168,0.9222451,-0.03407621, 45.58016, 66.72771, 34.54046
00:01:18.0997583 -0.04450005,0.9236556,-0.03339788, 44.97828, 66.3088, 34.32631
00:01:18.1107598 -0.04386718,0.9251882,-0.03266243, 44.41587, 65.84155, 33.99054
00:01:18.1226959 -0.04324187,0.9266878,-0.03204432, 43.93899, 65.48684, 33.71487
00:01:18.1346648 -0.04263005,0.9283055,-0.03138933, 43.52786, 65.23027, 33.60474
00:01:18.1466592 -0.0418219,0.9299091,-0.03070547, 43.07037, 65.0121, 33.57906
00:01:18.1586004 -0.04126035,0.9314131,-0.02994572, 42.52604, 64.76672, 33.48561
00:01:18.1695723 -0.04073373,0.933162,-0.02919785, 41.92424, 64.59116, 33.35108
00:01:18.1805515 -0.04022627,0.9347793,-0.02846957, 41.35579, 64.36247, 33.08102
00:01:18.1925095 -0.03977525,0.9364262,-0.02762764, 40.83618, 64.11314, 32.77846
00:01:18.2044777 -0.03933592,0.938107,-0.02688167, 40.33375, 63.7879, 32.47277
00:01:18.2144511 -0.03886927,0.9396544,-0.02613285, 39.81138, 63.4184, 32.17287
00:01:18.2264441 -0.03838489,0.941253,-0.02551916, 39.29167, 63.08146, 31.84646
00:01:18.2363931 -0.03796212,0.942911,-0.02488676, 38.82866, 62.82085, 31.53396
00:01:18.2483609 -0.03733984,0.9445589,-0.02428321, 38.38465, 62.60061, 31.22731
00:01:18.2603276 -0.03689847,0.9461593,-0.02354099, 37.90962, 62.38937, 30.93312
00:01:18.2712995 -0.03645097,0.9478936,-0.02291733, 37.45472, 62.18074, 30.65454
00:01:18.2832739 -0.03602707,0.9495185,-0.02226216, 36.93715, 61.96094, 30.34429
00:01:18.2922507 -0.03558682,0.9511423,-0.02162857, 36.37374, 61.71092, 29.97608
00:01:18.3042098 -0.03523045,0.9527612,-0.02101732, 35.83066, 61.42498, 29.54449
00:01:18.3161885 -0.03516733,0.95403,-0.02033518, 35.40654, 61.20087, 29.19576
00:01:18.3261525 -0.03481552,0.9555939,-0.019744, 35.00279, 60.97852, 28.95629
00:01:18.3371331 -0.03456265,0.9572905,-0.01909212, 34.55617, 60.76777, 28.83876
00:01:18.3480941 -0.03410894,0.9589179,-0.01848982, 34.06472, 60.51968, 28.70099
00:01:18.3600940 -0.03380679,0.9604758,-0.01788902, 33.49915, 60.30212, 28.63508
00:01:18.3720297 -0.03364634,0.962204,-0.01719026, 32.90276, 60.06347, 28.52887
00:01:18.3820035 -0.03353827,0.9639104,-0.01666847, 32.32409, 59.80202, 28.36484
00:01:18.3939710 -0.03339851,0.9655145,-0.01596274, 31.79267, 59.54724, 28.20443
00:01:18.4049410 -0.03330702,0.9670581,-0.01541629, 31.2846, 59.25566, 28.04608
00:01:18.4159381 -0.03305525,0.9687198,-0.0148604, 30.80872, 58.9937, 27.88851
00:01:18.4278800 -0.03286188,0.9702676,-0.01429796, 30.33493, 58.74783, 27.76065
00:01:18.4378542 -0.03266626,0.9717576,-0.01376957, 29.84993, 58.58436, 27.71109
00:01:18.4508194 -0.03247303,0.9732379,-0.01327368, 29.35716, 58.4173, 27.53931
00:01:18.4607924 -0.0324492,0.9747618,-0.01246721, 28.87355, 58.24145, 27.40347
00:01:18.4717632 -0.0322114,0.9761945,-0.01206353, 28.489, 58.14059, 27.32552
00:01:18.4837373 -0.03197531,0.9776865,-0.01164732, 28.0855, 58.05709, 27.24737
00:01:18.4957000 -0.03178187,0.9792799,-0.01134843, 27.64015, 57.92016, 27.02538
00:01:18.5054510 -0.03170257,0.980797,-0.01093216, 27.17355, 57.79811, 26.68502
00:01:18.5174439 -0.0317485,0.9822633,-0.01058286, 26.72344, 57.60276, 26.39933
00:01:18.5283899 -0.03161765,0.9836103,-0.01021752, 26.29921, 57.39163, 26.02588
00:01:18.5403581 -0.03153892,0.9849848,-0.009884887, 25.91302, 57.15258, 25.68934
00:01:18.5503312 -0.03145656,0.9863473,-0.009555452, 25.53576, 56.97579, 25.41651
00:01:18.5622986 -0.0315298,0.9877652,-0.009070633, 25.1357, 56.85575, 25.21016
00:01:18.5722732 -0.03150904,0.9891127,-0.008760884, 24.75119, 56.72693, 25.03135
00:01:18.5832425 -0.03136456,0.9905593,-0.008452795, 24.40532, 56.67295, 24.88385
00:01:18.5952114 -0.03134019,0.9919416,-0.008085145, 23.99495, 56.59658, 24.69356
00:01:18.6051838 -0.03130281,0.9933045,-0.007781195, 23.54714, 56.42472, 24.45119
00:01:18.6171527 -0.03133427,0.9945986,-0.007509305, 23.14308, 56.27707, 24.21535
00:01:18.6281253 -0.03128617,0.995878,-0.007351777, 22.77662, 56.14941, 24.03637
00:01:18.6390983 -0.03142836,0.9972051,-0.007213122, 22.40516, 55.97069, 23.97345
00:01:18.6520595 -0.03132609,0.998715,-0.00700099, 21.99213, 55.82151, 23.87997
00:01:18.6620329 -0.03132889,0.9999062,-0.00661546, 21.52048, 55.64013, 23.67496
00:01:18.6730033 -0.03136984,1.001195,-0.006316765, 21.08743, 55.44624, 23.40426
00:01:18.6840073 -0.03140808,1.002482,-0.006144209, 20.73576, 55.33308, 23.03462
00:01:18.6959485 -0.03142537,1.003624,-0.005900135, 20.41809, 55.24684, 22.85187
00:01:18.7069128 -0.03185253,1.004809,-0.006009168, 20.13085, 55.17262, 22.76568
00:01:18.7178843 -0.03181086,1.006074,-0.005918135, 19.79313, 55.098, 22.66627
00:01:18.7298514 -0.03195935,1.007247,-0.005654948, 19.50349, 55.06028, 22.5811
00:01:18.7408222 -0.0318075,1.008361,-0.005488147, 19.2457, 54.99611, 22.48007
00:01:18.7517923 -0.03164364,1.009739,-0.005393874, 18.98735, 54.9584, 22.3303
00:01:18.7627627 -0.03174302,1.010856,-0.005148832, 18.64023, 54.88923, 22.04395
00:01:18.7737346 -0.03204522,1.011889,-0.005155426, 18.30431, 54.77506, 21.75591
00:01:18.7847047 -0.03208395,1.012972,-0.005161216, 18.04404, 54.70304, 21.46
00:01:18.7966722 -0.03221981,1.014034,-0.004975351, 17.807, 54.64919, 21.31139
00:01:18.8074187 -0.03228756,1.014987,-0.005015014, 17.57096, 54.56654, 21.23326
00:01:18.8184015 -0.03222562,1.016107,-0.00499279, 17.28924, 54.50004, 21.22711
00:01:18.8293607 -0.03231683,1.017092,-0.004875885, 16.96958, 54.45128, 21.11951
00:01:18.8403300 -0.03251902,1.017993,-0.004818493, 16.71735, 54.38369, 21.02503
00:01:18.8522975 -0.0324972,1.019075,-0.004767216, 16.54567, 54.33305, 20.98278
00:01:18.8622720 -0.03258084,1.019905,-0.004637761, 16.35131, 54.30231, 20.97342
00:01:18.9001687 -0.03302253,1.020776,-0.004695195, 16.12898, 54.24121, 20.99337
00:01:18.9062497 -0.03314098,1.022708,-0.004496996, 15.67195, 54.218, 21.072
00:01:18.9122354 -0.03332999,1.02362,-0.004380998, 15.41704, 54.13441, 21.06201
00:01:18.9182193 -0.03355277,1.024508,-0.004196836, 15.11016, 54.01018, 20.91153
00:01:18.9261961 -0.03381987,1.025429,-0.003926004, 14.83675, 53.91887, 20.79964
00:01:18.9371684 -0.03404609,1.026237,-0.003843185, 14.55589, 53.70261, 20.47321
00:01:18.9481381 -0.03422993,1.027055,-0.003916869, 14.38666, 53.57567, 20.45217
00:01:18.9591082 -0.03436647,1.027828,-0.00385652, 14.21464, 53.55252, 20.48549
00:01:18.9700794 -0.03423094,1.028347,-0.003860001, 14.06995, 53.58932, 20.56923
00:01:18.9810505 -0.03437457,1.029269,-0.003951193, 13.89565, 53.59565, 20.54771
00:01:18.9920206 -0.03451914,1.029985,-0.003758958, 13.73707, 53.66083, 20.44547
00:01:19.0039888 -0.03468743,1.030754,-0.003650863, 13.54292, 53.61565, 20.3363
00:01:19.0154683 -0.03507896,1.031447,-0.003711452, 13.37292, 53.50723, 20.22217
00:01:19.0254425 -0.03525629,1.032084,-0.003621826, 13.21886, 53.42871, 20.16322
00:01:19.0374107 -0.03534119,1.032541,-0.00354425, 13.00405, 53.32865, 20.07322
00:01:19.0473841 -0.03553751,1.033278,-0.003505306, 12.80236, 53.23141, 19.95852
00:01:19.0593508 -0.03579816,1.033839,-0.003326712, 12.66421, 53.18324, 19.85879
00:01:19.0703220 -0.03619608,1.03454,-0.003275917, 12.53006, 53.07896, 19.81887
00:01:19.0812921 -0.03620903,1.035275,-0.003215794, 12.39626, 53.01097, 19.78652
00:01:19.0912659 -0.03633696,1.035827,-0.003055608, 12.24104, 52.98348, 19.7583
00:01:19.1032340 -0.03649018,1.036299,-0.003050422, 12.09931, 52.94164, 19.75229
00:01:19.1142045 -0.03652975,1.03695,-0.003006939, 11.95946, 52.93513, 19.73473
00:01:19.1251746 -0.03663979,1.037454,-0.002987961, 11.82487, 52.9396, 19.70909
00:01:19.1361461 -0.03683718,1.037901,-0.002966981, 11.69014, 52.8881, 19.62579
00:01:19.1471165 -0.03699038,1.038432,-0.002894531, 11.51694, 52.80546, 19.45927
00:01:19.1600821 -0.03723887,1.038981,-0.002717442, 11.36508, 52.71649, 19.30667
00:01:19.1700573 -0.03745311,1.039522,-0.002619649, 11.22066, 52.57138, 19.15754
00:01:19.1820241 -0.03762076,1.039957,-0.002516049, 11.08491, 52.46709, 19.00328
00:01:19.1929949 -0.0376866,1.04035,-0.002454807, 10.97288, 52.42634, 18.94986
00:01:19.2039653 -0.0377395,1.040776,-0.002434967, 10.85948, 52.37711, 18.96252
00:01:19.2149379 -0.03766635,1.041301,-0.002438635, 10.76354, 52.42568, 19.01311
00:01:19.2259066 -0.03764012,1.041712,-0.002465169, 10.64793, 52.50559, 18.97813
00:01:19.2378751 -0.0377941,1.042214,-0.002318294, 10.53054, 52.53115, 18.89823
00:01:19.2488452 -0.03809679,1.042773,-0.00240348, 10.41634, 52.48565, 18.82735
00:01:19.2598160 -0.0381735,1.043104,-0.002333011, 10.3366, 52.44776, 18.78388
00:01:19.2707879 -0.03837838,1.043455,-0.002327123, 10.25127, 52.39854, 18.77871
00:01:19.2827542 -0.03851587,1.043731,-0.002271333, 10.16588, 52.37597, 18.81662
00:01:19.2937313 -0.03864022,1.044044,-0.002193241, 10.08967, 52.39644, 18.80031
00:01:19.3047210 -0.03885604,1.044254,-0.002202773, 10.01796, 52.36369, 18.76629
00:01:19.3166633 -0.03894179,1.044529,-0.002097567, 9.951964, 52.35136, 18.76075
00:01:19.3266367 -0.03902563,1.0448,-0.002024437, 9.882079, 52.33323, 18.74943
00:01:19.3386337 -0.03910366,1.045038,-0.001925413, 9.847811, 52.26791, 18.67781
00:01:19.3485794 -0.03907485,1.045399,-0.001891629, 9.802675, 52.23907, 18.63175
00:01:19.3605458 -0.03914864,1.045614,-0.001749557, 9.742485, 52.23806, 18.64435
00:01:19.3715181 -0.03903119,1.045784,-0.001637767, 9.672652, 52.20435, 18.70178
00:01:19.3825126 -0.03892113,1.046181,-0.001573816, 9.609957, 52.18503, 18.69043
00:01:19.3944563 -0.03893899,1.046397,-0.001494294, 9.564637, 52.20345, 18.57928
00:01:19.4054271 -0.03908556,1.046567,-0.0014526, 9.534738, 52.1192, 18.38349
00:01:19.4163965 -0.03919107,1.04672,-0.001377207, 9.461542, 52.04122, 18.28552
00:01:19.4283661 -0.03915665,1.046879,-0.00139538, 9.393716, 51.9887, 18.24084
00:01:19.4383385 -0.03938814,1.047054,-0.001409317, 9.337686, 51.92311, 18.17615
00:01:19.4513029 -0.03934574,1.047247,-0.001370154, 9.18995, 52.0772, 18.02773
00:01:19.4612764 -0.03929123,1.047427,-0.001318919, 9.150278, 52.0047, 18.01944
00:01:19.4722479 -0.03950275,1.047657,-0.001389879, 9.21743, 51.83463, 18.08955
00:01:19.4862112 -0.03955125,1.04786,-0.001291097, 9.196422, 51.8499, 18.00676
00:01:19.4951949 -0.03972905,1.048076,-0.001132778, 9.092693, 51.89759, 17.87554
00:01:19.5061559 -0.03975445,1.048256,-0.001091128, 9.036159, 51.8827, 17.76463
00:01:19.5191222 -0.03985815,1.04841,-0.001049027, 9.020058, 51.8418, 17.66947
00:01:19.5300937 -0.03982566,1.048595,-0.001060859, 8.977633, 51.78111, 17.57043
00:01:19.5440913 -0.0396628,1.04883,-0.0009968446, 8.922087, 51.71907, 17.45306
00:01:19.5540308 -0.03965077,1.048998,-0.0009800787, 8.86459, 51.73197, 17.2732
00:01:19.5659964 -0.0396187,1.049191,-0.0009596134, 8.763208, 51.78087, 17.12726
00:01:19.5769683 -0.03992874,1.049357,-0.001202468, 8.681887, 51.81687, 17.03967
00:01:19.5889631 -0.03996489,1.049474,-0.001260521, 8.636689, 51.86713, 16.94466
00:01:19.5999310 -0.04000459,1.0497,-0.001248886, 8.56964, 51.86048, 16.86693
00:01:19.6118737 -0.03981361,1.049935,-0.001239923, 8.506987, 51.83967, 16.80155
00:01:19.6218475 -0.0397967,1.050104,-0.001262538, 8.455194, 51.83073, 16.78553
00:01:19.6328194 -0.0399315,1.050353,-0.001193862, 8.422884, 51.81789, 16.76377
00:01:19.6447861 -0.03999569,1.050537,-0.00120511, 8.399545, 51.7926, 16.72278
00:01:19.6577531 -0.03999934,1.050716,-0.001255109, 8.357583, 51.81974, 16.62671
00:01:19.6667288 -0.0400793,1.050874,-0.001230395, 8.284944, 51.80969, 16.54508
00:01:19.6777302 -0.04015978,1.051211,-0.001438975, 8.230527, 51.79864, 16.50196
00:01:19.6906637 -0.04012414,1.051383,-0.001555992, 8.203689, 51.82591, 16.52159
00:01:19.7006368 -0.04006888,1.051447,-0.001577148, 8.159466, 51.83183, 16.5149
00:01:19.7126053 -0.039963,1.051622,-0.001585716, 8.118176, 51.81345, 16.4523
00:01:19.7235758 -0.0399831,1.05175,-0.001578119, 8.06303, 51.81006, 16.38628
00:01:19.7335495 -0.03993785,1.051737,-0.001583237, 8.038662, 51.76352, 16.28805
00:01:19.7455170 -0.03999197,1.051833,-0.001589658, 8.010995, 51.73296, 16.20967
00:01:19.7574863 -0.04006584,1.05193,-0.001553694, 7.973489, 51.72493, 16.10672
00:01:19.7684571 -0.04019562,1.052114,-0.001479916, 7.952987, 51.65672, 15.95288
00:01:19.7794512 -0.04010376,1.052275,-0.001443281, 7.913604, 51.61135, 15.85672
00:01:19.7893999 -0.04004243,1.052398,-0.001478924, 7.845757, 51.59727, 15.7807
00:01:19.8013669 -0.03995019,1.052512,-0.001438251, 7.764609, 51.61829, 15.73926
00:01:19.8123378 -0.0545082,1.052023,-0.01842455, 7.311101, 51.92256, 15.72894
00:01:19.8253037 -0.0606681,1.052503,-0.01237055, 7.40353, 51.92402, 15.80738
00:01:19.8342812 -0.06110902,1.050274,-0.0131649, 7.428126, 51.89982, 15.65355
00:01:19.8452494 -0.04714606,1.062356,-0.02860996, 5.393588, 52.25843, 14.95248
00:01:19.8582146 -0.05470982,1.064169,-0.01936852, 5.499604, 52.21928, 15.09961
00:01:19.8671907 -0.05077026,1.055742,-0.02105154, 5.632586, 52.18, 14.93915
00:01:19.8781881 -0.0383647,1.064781,-0.03309673, 3.801916, 52.5537, 14.51639
00:01:19.8891323 -0.04503877,1.066699,-0.02451242, 3.845868, 52.50537, 14.66866
00:01:19.9011001 -0.03972562,1.057141,-0.02627999, 4.059966, 52.48434, 14.46551
00:01:19.9120731 -0.03634958,1.053889,-0.03339978, 3.772801, 52.75885, 14.46495
00:01:19.9240646 -0.04119168,1.054168,-0.02884221, 3.759367, 52.66705, 14.52462
00:01:19.9350121 -0.04030478,1.049939,-0.02954784, 3.861779, 52.6521, 14.43348
00:01:19.9460132 -0.03152997,1.049481,-0.03643197, 3.677469, 52.90689, 14.37992
00:01:19.9579493 -0.03501589,1.049352,-0.03334212, 3.642494, 52.79319, 14.39749
00:01:19.9689522 -0.03571197,1.047286,-0.03348694, 3.744946, 52.78853, 14.37089
00:01:19.9799139 -0.02439708,1.048248,-0.04022577, 3.581478, 53.06378, 14.32085
00:01:19.9908613 -0.02672668,1.048136,-0.03867537, 3.564768, 52.97016, 14.29436
00:01:20.0028280 -0.02779474,1.047132,-0.03867892, 3.651589, 52.99001, 14.19059
00:01:20.0136337 -0.01589844,1.047978,-0.04507191, 3.462048, 53.25751, 14.12538
00:01:20.0245713 -0.01777681,1.048002,-0.04410275, 3.407961, 53.14979, 14.20304
00:01:20.0355432 -0.01838479,1.047069,-0.04418327, 3.48002, 53.16634, 14.21134
00:01:20.0485076 0.003061304,1.058183,-0.05432641, 1.720896, 53.50586, 13.75586
00:01:20.0594784 0.0008983451,1.059423,-0.05175113, 1.729049, 53.36929, 13.8182
00:01:20.0694672 0.004474635,1.053651,-0.05294879, 1.92986, 53.38799, 13.72588
00:01:20.0814190 0.01754703,1.060074,-0.06224806, 0.2366351, 53.71677, 13.37922
00:01:20.0913924 0.01479716,1.06147,-0.05812665, 0.2378351, 53.55971, 13.43631
00:01:20.1033606 0.01962236,1.054622,-0.05980908, 0.5007049, 53.54418, 13.32263
00:01:20.1133355 0.02925393,1.057975,-0.06855445, -1.168335, 53.84292, 13.05825
00:01:20.1243052 0.02577194,1.058881,-0.06441685, -1.125244, 53.65713, 13.17019
00:01:20.1352756 0.02946113,1.053741,-0.0659954, -0.8236084, 53.68178, 13.05107
00:01:20.1472442 0.03791703,1.056361,-0.07454888, -2.454346, 53.9705, 12.7789
00:01:20.1582135 0.03408617,1.057121,-0.06919497, -2.382965, 53.78362, 12.89473
00:01:20.1691978 0.03686175,1.052191,-0.07049897, -2.01651, 53.81177, 12.83648
00:01:20.1801566 0.04456938,1.054198,-0.07895722, -3.579712, 54.04906, 12.57559
00:01:20.1911256 0.04058628,1.054669,-0.07437377, -3.562378, 53.84684, 12.65516
00:01:20.2030970 0.04237518,1.051358,-0.07559653, -3.178345, 53.93813, 12.58013
00:01:20.2150627 0.04987604,1.051797,-0.08318388, -4.807037, 54.17725, 12.5457
00:01:20.2260335 0.04577627,1.052037,-0.07939027, -4.808258, 54.00668, 12.63789
00:01:20.2629343 0.04611466,1.049874,-0.0806409, -4.357666, 54.10497, 12.60237
00:01:20.2669238 0.05483757,1.051218,-0.08246402, -5.756226, 54.47668, 12.69194
00:01:20.2709130 0.0645173,1.048285,-0.08770189, -5.559448, 55.14557, 12.51447
00:01:20.2808871 0.06473587,1.050498,-0.08906804, -6.696442, 55.15689, 12.56737
00:01:20.2888662 0.06154201,1.05073,-0.08645597, -6.669098, 54.90094, 12.62317
00:01:20.2998348 0.06098345,1.04933,-0.08755853, -6.207306, 55.03628, 12.56952
00:01:20.3108067 0.06209403,1.047978,-0.09398008, -6.767242, 55.97408, 12.31334
00:01:20.3209708 0.05957019,1.051476,-0.09107645, -7.743958, 55.639, 12.62677
00:01:20.3339499 0.05904451,1.049018,-0.09251712, -7.202881, 55.79665, 12.51087
00:01:20.3439379 0.0629309,1.04776,-0.09780452, -7.742554, 56.77411, 12.18788
00:01:20.3549025 0.06109172,1.05369,-0.09376057, -8.589996, 56.39724, 12.30579
00:01:20.3658759 0.06093648,1.049618,-0.09516818, -8.021362, 56.54793, 12.20568
00:01:20.3768540 0.06069762,1.048037,-0.1021708, -8.658752, 57.14487, 11.89097
00:01:20.3877916 0.05809898,1.053732,-0.09779384, -9.428711, 56.7788, 12.00963
00:01:20.3987635 0.05828084,1.049331,-0.09924753, -8.810364, 56.92118, 11.89951
00:01:20.4097584 0.06151769,1.047956,-0.1048333, -9.435974, 57.49672, 11.5759
00:01:20.4226980 0.05874199,1.052915,-0.1011862, -10.21289, 57.1177, 11.7339
00:01:20.4336696 0.05845409,1.04865,-0.1028373, -9.544952, 57.31076, 11.6282
00:01:20.4456385 0.064207,1.047344,-0.107492, -10.17413, 57.94513, 11.25626
00:01:20.4556119 0.06187535,1.053061,-0.1032485, -10.8775, 57.52816, 11.45031
00:01:20.4675790 0.06155497,1.048313,-0.1047069, -10.16104, 57.71393, 11.37791
00:01:20.4785487 0.0680417,1.046994,-0.1089176, -10.73172, 58.35484, 11.01373
00:01:20.4885221 0.06581955,1.051745,-0.1062468, -11.45023, 57.92425, 11.16641
00:01:20.5004921 0.06513833,1.048069,-0.1077209, -10.69437, 58.11264, 11.02781
00:01:20.5114622 0.05653931,1.046282,-0.1132369, -11.59561, 59.20831, 10.5036
00:01:20.5229735 0.05443311,1.051694,-0.1090481, -12.18771, 58.66888, 10.74476
00:01:20.5359387 0.05332486,1.047233,-0.1107092, -11.36139, 58.84438, 10.61353
00:01:20.5449140 0.06607121,1.046608,-0.1116388, -12.01056, 59.07427, 10.14161
00:01:20.5578810 0.06110171,1.048749,-0.1083774, -12.5986, 58.69007, 10.0562
00:01:20.5678646 0.05976782,1.045969,-0.1095245, -11.81827, 58.8663, 10.0154
00:01:20.5778264 0.0731605,1.050288,-0.1117135, -13.1026, 59.12062, 9.707405
00:01:20.5907923 0.06850281,1.05012,-0.1101297, -13.06262, 58.69266, 9.781853
00:01:20.6007650 0.06779533,1.047624,-0.1111649, -12.24518, 58.89293, 9.703767
00:01:20.6117355 0.06451488,1.051079,-0.1169257, -13.79407, 59.98914, 9.201552
00:01:20.6237033 0.06132899,1.050931,-0.1187644, -13.81683, 59.98105, 9.12878
00:01:20.6346748 0.05754349,1.047186,-0.114358, -12.83945, 59.63511, 9.367721
00:01:20.6456449 0.05081942,1.042381,-0.1162965, -13.92838, 60.98708, 9.016479
00:01:20.6556180 0.0443639,1.041409,-0.1120832, -13.91055, 60.39795, 9.274211
00:01:20.6675865 0.03995956,1.040662,-0.1132707, -13.04205, 60.60967, 9.310884
00:01:20.6795540 0.04180162,1.038765,-0.1139213, -13.87247, 61.97897, 8.794327
00:01:20.6895270 0.0359832,1.03769,-0.1114224, -13.83075, 61.35019, 8.93455
00:01:20.7014959 0.03018989,1.038189,-0.1126311, -12.98682, 61.54246, 8.948052
00:01:20.7114690 0.03806832,1.038706,-0.1129856, -13.73459, 62.90892, 8.338551
00:01:20.7234368 0.0326693,1.037917,-0.1115214, -13.76462, 62.22497, 8.532146
00:01:20.7354054 0.02731767,1.038251,-0.1125107, -12.92288, 62.39315, 8.601542
00:01:20.7463751 0.03695065,1.039575,-0.1121248, -13.60645, 63.74769, 7.999855
00:01:20.7583440 0.03228904,1.039101,-0.1110835, -13.62146, 63.05624, 8.088429
00:01:20.7683174 0.02776603,1.038743,-0.1120508, -12.77075, 63.25623, 8.128188
00:01:20.7802845 0.04814871,1.039641,-0.1068638, -13.34122, 65.18655, 7.792539
00:01:20.7912553 0.04673561,1.039952,-0.1093174, -13.34726, 64.43402, 7.796689
00:01:20.8022261 0.04326219,1.040278,-0.1101941, -12.44894, 64.57682, 7.849776
00:01:20.8141969 0.05517073,1.0406,-0.1069348, -13.16537, 66.45005, 7.340641
00:01:20.8241670 0.05414595,1.040305,-0.1095168, -13.20245, 65.58279, 7.397984
00:01:20.8351382 0.0512733,1.040953,-0.1105261, -12.35623, 65.71711, 7.528974
00:01:20.8471056 0.05999286,1.040605,-0.1080363, -13.09174, 67.55859, 7.059473
00:01:20.8570790 0.05935444,1.040432,-0.109745, -13.12042, 66.72357, 7.136886
00:01:20.8690472 0.06556003,1.041487,-0.1088341, -13.02664, 68.59844, 6.707651
00:01:20.8810409 0.06290077,1.040513,-0.1098244, -13.02393, 68.58647, 6.658509
00:01:20.8929847 0.06126883,1.041172,-0.1101534, -12.23871, 67.76183, 6.895163
00:01:20.9039555 0.06615669,1.041082,-0.1104044, -12.99881, 69.45902, 6.372178
00:01:20.9159222 0.06392188,1.040204,-0.1113098, -12.97644, 69.4504, 6.419376
00:01:20.9289195 0.06175651,1.040007,-0.1109824, -12.94806, 68.50549, 6.58649
00:01:20.9408808 0.06555753,1.040767,-0.1107295, -12.87534, 70.27772, 6.22219
00:01:20.9508294 0.06324206,1.039971,-0.1117935, -12.88037, 70.31437, 6.24667
00:01:20.9628271 0.06063433,1.040404,-0.1104617, -12.11676, 69.45069, 6.543174
00:01:20.9737684 0.06435528,1.04029,-0.1107232, -12.83572, 71.12381, 6.021497
00:01:20.9857373 0.0620767,1.039632,-0.1119311, -12.79083, 71.13869, 6.032315
00:01:20.9957096 0.05942774,1.039867,-0.1106016, -11.97452, 70.21049, 6.355869
00:01:21.0076767 0.06272966,1.039689,-0.11076, -12.67892, 71.89643, 5.846283
00:01:21.0186556 0.06073074,1.039248,-0.1120742, -12.64038, 71.92215, 5.900817
00:01:21.0296187 0.05809008,1.039136,-0.1102779, -12.63742, 70.93076, 6.093755
00:01:21.0415876 0.08088167,1.041232,-0.1033188, -11.69421, 71.38547, 6.411512
00:01:21.0545517 0.07845403,1.039208,-0.1029706, -11.74713, 71.43236, 6.506193
00:01:21.0625315 0.07860018,1.04109,-0.1055068, -11.08792, 70.55159, 6.755612
00:01:21.0744982 0.09357203,1.042451,-0.1015998, -10.92926, 70.71381, 6.907128
00:01:21.0854687 0.08986469,1.039356,-0.1008637, -11.00867, 70.80557, 7.096742
00:01:21.0964712 0.09062874,1.042077,-0.1041628, -10.4057, 69.96996, 7.340291
00:01:21.1084069 0.07682553,1.040346,-0.10922, -11.37936, 71.84251, 6.699572
00:01:21.1193788 0.07357582,1.038496,-0.1100749, -11.41351, 71.86953, 7.012316
00:01:21.1313463 0.07187405,1.038348,-0.1082858, -11.39297, 70.868, 7.371091
00:01:21.1403216 0.06551982,1.038558,-0.1108175, -11.51303, 72.78816, 7.058449
00:01:21.1532879 0.06278688,1.037431,-0.1120368, -11.5123, 72.81406, 7.280574
00:01:21.1632668 0.05940017,1.03718,-0.1082539, -10.79581, 71.784, 7.854365
00:01:21.1742325 0.05054594,1.035727,-0.1114528, -11.65469, 73.27826, 7.303405
00:01:21.1852018 0.05983789,1.045996,-0.1168898, -12.37186, 73.07753, 7.776413
00:01:21.1961723 0.0585404,1.041039,-0.1116469, -11.46591, 71.94003, 8.423856
00:01:21.2081423 0.07224733,1.040852,-0.1123585, -11.97458, 72.23969, 8.103698
00:01:21.2221296 0.07450485,1.045945,-0.1146483, -12.6109, 72.25113, 8.310433
00:01:21.2300828 0.07461318,1.041258,-0.1114204, -11.72278, 71.18188, 9.023205
00:01:21.2410540 0.08207593,1.040383,-0.1134081, -12.29132, 71.47313, 8.804667
00:01:21.2530597 0.08304932,1.044102,-0.1145212, -12.90399, 71.48478, 9.043952
00:01:21.2639919 0.08300169,1.040594,-0.1122338, -12.02997, 70.41525, 9.944173
00:01:21.2769585 0.07623883,1.039132,-0.1157263, -12.82196, 72.13974, 9.754243
00:01:21.2859338 0.07553615,1.043126,-0.1130832, -13.50076, 70.90536, 10.81601
00:01:21.2979016 0.07643112,1.039471,-0.1148317, -12.52045, 70.98184, 11.46842
00:01:21.3088732 0.07143959,1.038046,-0.1174199, -13.26462, 72.84245, 11.21499
00:01:21.3198418 0.06272674,1.03339,-0.1123344, -13.22961, 71.60492, 12.1703
00:01:21.3308141 0.06005495,1.032698,-0.1133119, -12.25726, 71.66747, 12.72918
00:01:21.3417841 0.09633795,1.034677,-0.1039486, -11.66562, 71.03825, 13.27384
00:01:21.3527539 0.1007648,1.039977,-0.1051484, -12.36829, 70.92593, 13.99975
00:01:21.3647217 0.1027693,1.040068,-0.1095487, -11.52652, 70.07868, 14.33533
00:01:21.3766910 0.1326051,1.041446,-0.105006, -10.86139, 69.05777, 14.92269
00:01:21.3866640 0.1224199,1.031205,-0.1004756, -11.00424, 69.18694, 15.18982
00:01:21.3986650 0.1225412,1.036417,-0.1073778, -10.41904, 68.42302, 15.30607
00:01:21.4086049 0.1347764,1.036687,-0.1057904, -9.83905, 67.69922, 15.68961
00:01:21.4215705 0.1283775,1.029074,-0.102982, -9.946259, 67.7014, 16.14269
00:01:21.4305378 0.1265485,1.03667,-0.1087402, -9.337616, 67.121, 16.04141
00:01:21.4425183 0.135281,1.036927,-0.1082189, -8.828522, 66.53517, 16.11548
00:01:21.4534749 0.1262526,1.025201,-0.1078091, -8.501221, 65.91235, 16.15499
00:01:21.4654438 0.1200108,1.032779,-0.1075164, -7.965393, 66.13115, 15.81973
00:01:21.4764154 0.1217214,1.026448,-0.1042152, -7.58429, 65.46759, 15.99033
00:01:21.4873847 0.1226024,1.025523,-0.1064608, -7.567047, 64.82706, 15.92362
00:01:21.5003503 0.1175295,1.031162,-0.1062917, -7.04245, 64.98014, 15.96933
00:01:21.5103339 0.1264155,1.031073,-0.1060019, -6.603607, 64.31285, 16.18443
00:01:21.5212949 0.1194362,1.024051,-0.1046683, -6.512573, 63.78167, 16.40286
00:01:21.5332631 0.1148317,1.029276,-0.1044419, -5.912933, 63.94376, 16.52012
00:01:21.5442328 0.124271,1.029388,-0.1020262, -5.429077, 63.34383, 16.85551
00:01:21.5552032 0.1164422,1.020115,-0.1008705, -5.032257, 62.86512, 17.31672
00:01:21.5661740 0.1109375,1.025119,-0.09992841, -4.478851, 62.96171, 17.75806
00:01:21.5781429 0.1180571,1.024949,-0.09804618, -3.915283, 62.27378, 18.26928
00:01:21.5881167 0.1119846,1.018569,-0.09777356, -3.42334, 61.67973, 18.62951
00:01:21.6539405 0.1073089,1.022308,-0.09687706, -2.824615, 61.67816, 18.81594
00:01:21.6599240 0.1066738,1.014676,-0.09358762, -0.6025085, 59.772, 20.53691
00:01:21.6669206 0.1029396,1.017226,-0.09295896, -0.1317139, 59.91537, 20.53143
00:01:21.6729268 0.1085842,1.016983,-0.09134545, 0.3270338, 59.46061, 20.81059
00:01:21.6848928 0.1037348,1.012954,-0.08934033, 0.7498003, 59.43436, 20.68926
00:01:21.6948534 0.10406,1.011965,-0.09137465, 0.886693, 59.01064, 20.49895
00:01:21.7068231 0.1064335,1.01459,-0.08899204, 1.538269, 58.55186, 20.45829
00:01:21.7167732 0.1024516,1.010528,-0.08736839, 1.947341, 58.46197, 20.64476
00:01:21.7284835 0.1027574,1.009328,-0.08968103, 2.074816, 58.05439, 20.77714
00:01:21.7414465 0.1052711,1.012037,-0.087281, 2.729735, 57.72094, 21.0968
00:01:21.7504222 0.1016979,1.00831,-0.08552961, 3.201952, 57.76548, 21.45891
00:01:21.7623915 0.09985746,1.009779,-0.08652632, 3.55389, 57.53842, 21.4996
00:01:21.7733612 0.1036761,1.0092,-0.08500697, 3.945408, 57.14927, 21.53208
00:01:21.7843316 0.1002109,1.005867,-0.08318949, 4.314935, 57.12754, 21.35356
00:01:21.7962987 0.09862169,1.006975,-0.08416526, 4.618494, 56.80227, 21.12958
00:01:21.8072695 0.1019584,1.006153,-0.08278956, 5.061286, 56.32769, 21.17743
00:01:21.8182411 0.09932336,1.002839,-0.08140686, 5.53441, 56.25036, 21.2988
00:01:21.8298180 0.09786057,1.00427,-0.08291547, 5.874263, 55.97639, 21.26728
00:01:21.8407720 0.1012089,1.003521,-0.08129968, 6.301886, 55.59537, 21.34721
00:01:21.8517760 0.09846155,1.000185,-0.07958837, 6.709696, 55.55431, 21.37083
00:01:21.8637442 0.09914534,0.9989246,-0.08114948, 6.880177, 55.25443, 21.21042
00:01:21.8746822 0.09955584,1.00051,-0.07933235, 7.341583, 54.89973, 21.12182
00:01:21.8866500 0.09776315,0.9975735,-0.07952484, 7.65728, 54.55631, 20.98242
00:01:21.8966252 0.09590289,0.9984207,-0.07871357, 7.947007, 54.47058, 20.86842
00:01:21.9086251 0.09815381,0.9975209,-0.07748565, 8.346032, 54.04345, 20.93497
00:01:21.9205590 0.09601405,0.9945087,-0.07587656, 8.797172, 53.97653, 21.07489
00:01:21.9298534 0.09483732,0.9954343,-0.07689389, 9.125644, 53.75766, 21.17129
00:01:21.9418209 0.09673714,0.9945096,-0.07566141, 9.524037, 53.42029, 21.3625
00:01:21.9518250 0.09453055,0.9917053,-0.07393683, 9.969175, 53.3652, 21.66545
00:01:21.9637629 0.0951864,0.9904006,-0.07495494, 10.25506, 53.10574, 21.94639
00:01:21.9737359 0.09460939,0.9913051,-0.07327837, 10.74992, 52.75008, 22.24381
00:01:21.9847064 0.09249932,0.9889237,-0.07152686, 11.22689, 52.55645, 22.64222
00:01:21.9966997 0.09142298,0.9892518,-0.0719819, 11.41578, 52.20543, 22.87103
00:01:22.0076450 0.0924105,0.9881988,-0.07090546, 11.71928, 51.7878, 23.1903
00:01:22.0196128 0.09046732,0.9854661,-0.06940004, 12.07664, 51.66748, 23.56463
00:01:22.0295877 0.09108975,0.9839615,-0.07077122, 12.34498, 51.42287, 23.81683
00:01:22.0415552 0.09044629,0.9845539,-0.06932063, 12.87316, 51.20216, 23.99618
00:01:22.0535226 0.09048977,0.9832816,-0.0687263, 13.18086, 51.17922, 24.11093
00:01:22.0634960 0.08749032,0.9822862,-0.06818139, 13.64251, 51.08271, 24.12806
00:01:22.0754646 0.08856916,0.9810597,-0.06722786, 14.14469, 50.83828, 24.14359
00:01:22.0864350 0.08755945,0.9779378,-0.06797714, 14.70909, 50.71457, 24.18743
00:01:22.0984021 0.08595284,0.9786212,-0.06723829, 15.17445, 50.74288, 24.18017
00:01:22.1103699 0.08707049,0.9774399,-0.06638814, 15.71767, 50.55728, 24.19909
00:01:22.1203441 0.08525595,0.9746024,-0.0650877, 16.18675, 50.62447, 24.11785
00:01:22.1313145 0.08592438,0.9730307,-0.06626836, 16.42334, 50.55766, 23.93902
00:01:22.1442801 0.08419462,0.9735856,-0.06549127, 16.69477, 50.58991, 23.82622
00:01:22.1532554 0.08354614,0.970755,-0.06359608, 17.25041, 50.45048, 23.86185
00:01:22.1662221 0.08424865,0.96896,-0.06479606, 17.62779, 50.41203, 23.849
00:01:22.1761966 0.08352172,0.9693408,-0.0635471, 18.21439, 50.25141, 23.93917
00:01:22.1871656 0.08204608,0.9664003,-0.06239511, 18.86251, 50.3608, 24.13669
00:01:22.1981608 0.08271945,0.9646553,-0.06407717, 19.27714, 50.33874, 24.22373
00:01:22.2091057 0.08213056,0.965343,-0.06250726, 19.7427, 50.24514, 24.52962
00:01:22.2220976 0.08216886,0.9638719,-0.06211386, 20.02372, 50.28082, 24.62947
00:01:22.2310762 0.08011496,0.9605347,-0.06080743, 20.37878, 50.29807, 24.74091
00:01:22.2430177 0.08096811,0.9585644,-0.06268755, 20.72351, 50.20726, 24.83803
00:01:22.2530167 0.07957758,0.9596781,-0.06146884, 21.21879, 50.06818, 24.99338
00:01:22.2639827 0.07777787,0.9565459,-0.06029198, 21.87736, 50.14787, 25.17575
00:01:22.2769519 0.07892188,0.9546631,-0.06234411, 22.37409, 50.24722, 25.32956
00:01:22.2869239 0.07736225,0.954859,-0.06171878, 22.7735, 50.44161, 25.461
00:01:22.2978951 0.07688757,0.95218,-0.06009798, 23.41675, 50.46017, 25.63537
00:01:22.3098439 0.07622144,0.9520874,-0.06136005, 23.78569, 50.54834, 25.68863
00:01:22.3208326 0.07685541,0.9506338,-0.06086186, 24.24995, 50.51381, 25.69956
00:01:22.3327767 0.0755026,0.948136,-0.05991671, 24.74348, 50.6051, 25.73582
00:01:22.3447719 0.07645818,0.9465175,-0.06146162, 25.07249, 50.56953, 25.64787
00:01:22.3577247 0.07505719,0.946462,-0.06089954, 25.4274, 50.6433, 25.61311
00:01:22.3696790 0.07573566,0.9450528,-0.06027498, 25.8698, 50.6214, 25.56152
00:01:22.3816742 0.07525948,0.9427131,-0.06103305, 26.31311, 50.69801, 25.56514
00:01:22.3936139 0.07403667,0.9426299,-0.06029513, 26.62511, 50.65812, 25.58533
00:01:22.4036191 0.07330387,0.9403208,-0.06061836, 26.97923, 50.77212, 25.57463
00:01:22.4155588 0.07188158,0.940285,-0.06013988, 27.29141, 50.74822, 25.54853
00:01:22.4275226 0.07195024,0.9388974,-0.05982248, 27.63913, 50.81963, 25.39792
00:01:22.4364980 0.07153478,0.9367532,-0.06095752, 28.11715, 50.85864, 25.20659
00:01:22.4484982 0.07161245,0.9352643,-0.0607588, 28.50613, 50.91808, 25.06758
00:01:22.4594384 0.07035664,0.9352703,-0.06015846, 28.82019, 50.94912, 25.04953
00:01:22.4704428 0.06903402,0.9332083,-0.05941988, 29.24567, 50.89881, 25.22256
00:01:22.4813789 0.06984548,0.9317074,-0.06090204, 29.5334, 50.98884, 25.35808
00:01:22.4923508 0.06867163,0.9315573,-0.06038351, 29.80195, 51.07306, 25.42028
00:01:22.5043172 0.06787095,0.9297926,-0.05949485, 30.35131, 51.11492, 25.52653
00:01:22.5172831 0.06836536,0.9283347,-0.06087203, 30.74226, 51.18489, 25.48177
00:01:22.5262588 0.06711397,0.9283551,-0.0603203, 31.05298, 51.23315, 25.44426
00:01:22.5372300 0.06677572,0.9269859,-0.06008412, 31.39075, 51.16875, 25.42488
00:01:22.5491974 0.06672499,0.925691,-0.05985355, 31.7229, 51.21924, 25.44386
00:01:22.5591701 0.06571969,0.9234444,-0.05895257, 32.08384, 51.19254, 25.5283
00:01:22.5711569 0.06644329,0.9220028,-0.06106061, 32.35513, 51.23233, 25.60487
00:01:22.5821160 0.06524536,0.922583,-0.06037227, 32.61977, 51.22735, 25.63794
00:01:22.5941123 0.06448009,0.9208716,-0.05956397, 32.99123, 51.35779, 25.57654
00:01:22.6050576 0.06340194,0.9205479,-0.06121031, 33.29221, 51.41358, 25.48201
00:01:22.6170170 0.06156347,0.9194408,-0.06166712, 33.71944, 51.55791, 25.32219
00:01:22.6270218 0.06113369,0.9182286,-0.0619381, 34.12168, 51.59478, 25.26733
00:01:22.6389575 0.06056828,0.916851,-0.06143622, 34.55603, 51.70533, 25.24443
00:01:22.6499298 0.0611328,0.9155318,-0.06303523, 34.77041, 51.83005, 25.28469
00:01:22.6609010 0.06015614,0.9158233,-0.06246445, 35.0121, 51.87552, 25.28943
00:01:22.6718692 0.05913816,0.9141639,-0.06183919, 35.40503, 52.00537, 25.24782
00:01:22.6838385 0.05964649,0.9129254,-0.06304974, 35.75785, 52.20107, 25.20337
00:01:22.6958049 0.05900737,0.91221,-0.06280143, 36.04288, 52.31921, 25.12064
00:01:22.7058126 0.05895132,0.9109886,-0.06260385, 36.39947, 52.42373, 25.13629
00:01:22.7167757 0.05855088,0.9097104,-0.06220816, 36.79589, 52.55159, 25.1509
00:01:22.7277520 0.05790595,0.9095773,-0.06324666, 37.00864, 52.68298, 25.20675
00:01:22.7386903 0.05679128,0.9079908,-0.06288208, 37.38606, 52.75428, 25.30132
00:01:22.7496611 0.05647873,0.9074556,-0.06419224, 37.65309, 52.87161, 25.2552
00:01:22.7606330 0.05591583,0.9062636,-0.06429949, 38.01763, 52.97943, 25.19241
00:01:22.7716035 0.05591926,0.9050521,-0.06523934, 38.40173, 53.1631, 25.17104
00:01:22.7835720 0.05459242,0.9044879,-0.06526208, 38.67948, 53.30958, 25.15994
00:01:22.7945735 0.05454928,0.9033564,-0.06531379, 39.0268, 53.50752, 25.16621
00:01:22.8055439 0.05467119,0.9021801,-0.06655499, 39.4774, 53.75443, 25.1929
00:01:22.8164859 0.05402898,0.9016765,-0.06650476, 39.77374, 53.93222, 25.19199
00:01:22.8284515 0.05334971,0.9006414,-0.06684323, 40.06211, 54.04224, 25.224
00:01:22.8393870 0.05288347,0.8994567,-0.06656139, 40.3446, 54.18836, 25.21639
00:01:22.8523609 0.05329897,0.8983776,-0.06794, 40.58832, 54.34049, 25.09672
00:01:22.8613293 0.05269887,0.8979095,-0.06781383, 40.82831, 54.49965, 25.00275
00:01:22.8742945 0.05202341,0.896757,-0.06808031, 41.17564, 54.64807, 24.94003
00:01:22.8842672 0.05157451,0.8955297,-0.06777686, 41.56798, 54.88401, 25.00009
00:01:22.8952376 0.0513889,0.8950302,-0.06899495, 41.86954, 55.13133, 25.07698
00:01:22.9072051 0.05052729,0.8941899,-0.07012489, 42.2628, 55.3339, 25.25002
00:01:22.9171782 0.04910991,0.8935558,-0.07044657, 42.49269, 55.48091, 25.38783
00:01:22.9311407 0.04924048,0.8925045,-0.0716313, 42.76046, 55.71515, 25.48643
00:01:22.9391194 0.04884282,0.8919423,-0.07158098, 42.97765, 55.87631, 25.54258
00:01:22.9510876 0.04801892,0.8910946,-0.07173087, 43.27289, 55.9819, 25.51628
00:01:22.9879888 0.04822486,0.8900962,-0.07270005, 43.53276, 56.18198, 25.49494
00:01:22.9939734 0.04645446,0.8886157,-0.07287608, 44.33661, 56.50573, 25.72438
00:01:22.9989614 0.04625725,0.888,-0.07398428, 44.60249, 56.70908, 25.85728
00:01:23.0069492 0.04553146,0.8870993,-0.07443846, 44.87463, 56.89697, 26.11294
00:01:23.0129240 0.04534388,0.886467,-0.07441951, 45.18761, 57.0975, 26.277
00:01:23.0248911 0.04561466,0.8856429,-0.07558084, 45.38588, 57.31138, 26.32232
00:01:23.0357390 0.04526608,0.8851122,-0.07550309, 45.51366, 57.41715, 26.17085
00:01:23.0467083 0.04448393,0.8843192,-0.07582965, 45.73365, 57.50452, 26.05709
00:01:23.0576792 0.04413462,0.8836657,-0.07562802, 46.05869, 57.58852, 25.92381
00:01:23.0686500 0.04413111,0.8831701,-0.07627117, 46.26727, 57.73687, 25.88226
00:01:23.0796219 0.04295339,0.8824323,-0.07665019, 46.55772, 57.92778, 26.03061
00:01:23.0915882 0.04313269,0.8816258,-0.07773342, 46.78017, 58.15476, 26.06278
00:01:23.1025587 0.04306899,0.8810821,-0.07763422, 46.97178, 58.41984, 26.22492
00:01:23.1135295 0.04238154,0.8806308,-0.07804757, 47.29103, 58.6374, 26.35515
00:01:23.1245006 0.0428469,0.8800813,-0.07890334, 47.49825, 58.94151, 26.45282
00:01:23.1360319 0.04262116,0.8797931,-0.07873228, 47.59904, 59.12986, 26.47297
00:01:23.1479990 0.04171308,0.8792006,-0.07893801, 47.69672, 59.15617, 26.34051
00:01:23.1579728 0.0417232,0.8788867,-0.07874255, 47.90034, 59.17056, 26.21176
00:01:23.1699410 0.04196274,0.8782302,-0.07958619, 48.06737, 59.2649, 26.10396
00:01:23.1809115 0.04183875,0.8777847,-0.07934356, 48.25001, 59.38142, 26.29817
00:01:23.1918819 0.04073529,0.8770559,-0.07992119, 48.44457, 59.54443, 26.53218
00:01:23.2038504 0.04122243,0.8767644,-0.08103041, 48.64132, 59.85983, 26.79633
00:01:23.2148205 0.04104402,0.876586,-0.08084929, 48.68895, 60.08875, 26.86297
00:01:23.2257913 0.04008215,0.8760999,-0.08117859, 48.90142, 60.259, 26.86925
00:01:23.2365014 0.04039494,0.875484,-0.08198237, 49.08912, 60.46631, 26.73383
00:01:23.2474401 0.04001354,0.8752286,-0.08196446, 49.27739, 60.66481, 26.71987
00:01:23.2594083 0.03908306,0.8747715,-0.08226024, 49.5672, 60.83882, 26.85207
00:01:23.2693817 0.03945294,0.8742502,-0.08285182, 49.68872, 61.07435, 27.03139
00:01:23.2803635 0.03936956,0.8738394,-0.08277424, 49.75959, 61.26353, 27.14511
00:01:23.2943140 0.0385749,0.8732624,-0.08314757, 49.90493, 61.40017, 27.14352
00:01:23.3032915 0.03852343,0.8729762,-0.08287786, 50.13037, 61.47, 26.86008
00:01:23.3152586 0.03860002,0.8723702,-0.08404008, 50.28173, 61.57785, 26.62598
00:01:23.3272271 0.03768259,0.8720285,-0.08456834, 50.5585, 61.71119, 26.59042
00:01:23.3372006 0.03767884,0.8714722,-0.08510147, 50.72903, 61.94909, 26.6811
00:01:23.3501661 0.03712135,0.8708213,-0.0853662, 50.92258, 62.1247, 26.8392
00:01:23.3591404 0.03721929,0.8702828,-0.08525366, 51.06961, 62.32254, 27.03279
00:01:23.3721074 0.03779021,0.8700856,-0.08606973, 51.26161, 62.45964, 26.9761
00:01:23.3820801 0.03749393,0.8697052,-0.08589619, 51.4026, 62.57503, 26.87136
00:01:23.3940672 0.03628886,0.8691179,-0.08600788, 51.69587, 62.59585, 26.64944
00:01:23.4050431 0.03646422,0.8683448,-0.08733381, 51.8786, 62.70269, 26.57129
00:01:23.4159902 0.03612103,0.868014,-0.08729149, 52.02744, 62.85863, 26.69451
00:01:23.4269600 0.03491181,0.8674451,-0.08797278, 52.28474, 63.11474, 27.11658
00:01:23.4379585 0.03504289,0.866978,-0.0890465, 52.4387, 63.42931, 27.39878
00:01:23.4489023 0.03452235,0.866495,-0.08926586, 52.59835, 63.73991, 27.57162
00:01:23.4598724 0.03421852,0.8660303,-0.08917344, 52.79992, 63.90598, 27.50921
00:01:23.4718406 0.0339952,0.8657387,-0.0897584, 52.9346, 64.00679, 27.23806
00:01:23.4828424 0.03325733,0.8651866,-0.0899463, 53.15171, 64.12469, 27.16358
00:01:23.4947795 0.03292267,0.864736,-0.08978175, 53.37908, 64.30551, 27.32476
00:01:23.5057821 0.03347111,0.864353,-0.090894, 53.50257, 64.57638, 27.75692
00:01:23.5167201 0.03223308,0.8641055,-0.09105019, 53.52482, 64.85931, 28.1977
00:01:23.5266949 0.03237612,0.8640275,-0.09087116, 53.67447, 65.12634, 28.4134
00:01:23.5386876 0.0325958,0.8635712,-0.09163108, 53.78155, 65.22838, 28.31416
00:01:23.5496317 0.03150639,0.8629745,-0.09204815, 53.9484, 65.32996, 28.34737
00:01:23.5606372 0.03160403,0.8625473,-0.09195203, 54.15341, 65.44929, 28.51265
00:01:23.5716062 0.03236184,0.8625772,-0.093546, 54.34763, 65.68946, 28.88662
00:01:23.5825686 0.03099715,0.8622593,-0.0940597, 54.38122, 65.91355, 29.23451
00:01:23.5945138 0.0310454,0.8623221,-0.09386071, 54.50835, 66.11125, 29.46259
00:01:23.6064802 0.02979144,0.8618912,-0.09481785, 54.61636, 66.07058, 29.31074
00:01:23.6184476 0.02961826,0.8618193,-0.09464444, 54.89071, 66.00639, 29.2507
00:01:23.6304162 0.02974466,0.8612909,-0.09507195, 55.05055, 66.01062, 29.34539
00:01:23.6433817 0.02907826,0.8609403,-0.09518854, 55.17717, 66.12564, 29.75637
00:01:23.6543522 0.02915076,0.8609776,-0.09490577, 55.29966, 66.32903, 30.27905
00:01:23.6663204 0.0292835,0.8609809,-0.09550598, 55.30859, 66.49266, 30.59725
00:01:23.6772912 0.02853327,0.8609024,-0.09565563, 55.33455, 66.54163, 30.76195
00:01:23.6892674 0.0288011,0.8612493,-0.09515081, 55.43674, 66.49527, 30.61068
00:01:23.6992328 0.02918519,0.8611802,-0.09577008, 55.4959, 66.52368, 30.59376
00:01:23.7111995 0.02824527,0.8613429,-0.0956321, 55.50517, 66.4762, 30.4109
00:01:23.7221710 0.02868728,0.8614361,-0.09623843, 55.58407, 66.5143, 30.38577
00:01:23.7331407 0.02870159,0.8615186,-0.09593109, 55.61309, 66.60374, 30.47886
00:01:23.7451089 0.02799121,0.8613335,-0.09606112, 55.69536, 66.72581, 30.66344
00:01:23.7570764 0.02804763,0.8613805,-0.09559663, 55.88123, 66.88368, 30.89775
00:01:23.7670516 0.02844622,0.8612018,-0.09616397, 55.98633, 67.03956, 31.09967
00:01:23.7780542 0.02755173,0.8610253,-0.09624, 56.10389, 67.11117, 31.29194
00:01:23.7879959 0.02781121,0.8611909,-0.0963449, 56.21144, 67.10133, 31.39555
00:01:23.7999637 0.02751398,0.8614082,-0.09590194, 56.22891, 67.03773, 31.46966
00:01:23.8109702 0.0267541,0.8613011,-0.095726, 56.25732, 66.84296, 31.48046
00:01:23.8219407 0.02677434,0.8612626,-0.09575482, 56.30701, 66.68632, 31.46307
00:01:23.8338728 0.02646573,0.8614377,-0.09514242, 56.31884, 66.5478, 31.49674
00:01:23.8438458 0.02603766,0.8613532,-0.09481841, 56.38547, 66.45459, 31.54412
00:01:23.8558133 0.02590285,0.8613957,-0.09411369, 56.48753, 66.41434, 31.62771
00:01:23.8677815 0.02597063,0.8614987,-0.09467444, 56.51513, 66.36706, 31.63601
00:01:23.8777549 0.02527438,0.8613126,-0.09447569, 56.61687, 66.30692, 31.61956
00:01:23.8897231 0.02513766,0.8613666,-0.0938923, 56.73437, 66.28053, 31.67199
00:01:23.9006946 0.02517615,0.8614119,-0.0944811, 56.76779, 66.27129, 31.68798
00:01:23.9116643 0.02468772,0.8612567,-0.09441269, 56.83346, 66.2923, 31.79374
00:01:23.9236332 0.02469446,0.8614151,-0.09402284, 56.94193, 66.32784, 31.91827
00:01:23.9346029 0.02483176,0.8612568,-0.09434829, 56.9521, 66.38181, 31.99411
00:01:23.9455726 0.02430425,0.8610864,-0.09431827, 57.05366, 66.37204, 32.04419
00:01:23.9565770 0.02417571,0.8610602,-0.09393349, 57.21737, 66.34464, 32.0458
00:01:23.9685135 0.02422497,0.8609378,-0.09437034, 57.27631, 66.33399, 32.01975
00:01:23.9794817 0.02365943,0.8606914,-0.0943815, 57.39719, 66.30692, 32.02116
00:01:23.9894566 0.02363501,0.860705,-0.09404922, 57.53431, 66.35996, 32.09118
00:01:24.0014485 0.02387728,0.8604849,-0.09440482, 57.60106, 66.44145, 32.10149
00:01:24.0123952 0.02368915,0.8604166,-0.09412349, 57.6429, 66.5103, 32.16452
00:01:24.0243623 0.02276167,0.8602362,-0.09397875, 57.81789, 66.48734, 32.14988
00:01:24.0353331 0.02292132,0.8600355,-0.09435832, 57.91352, 66.44364, 32.0422
00:01:24.0453076 0.02210904,0.8598478,-0.09430148, 57.97618, 66.45004, 32.06321
00:01:24.0562872 0.02185898,0.8597645,-0.09392565, 58.09484, 66.48966, 32.14749
00:01:24.0672657 0.02198105,0.8595813,-0.09434299, 58.09295, 66.55087, 32.24771
00:01:24.0792163 0.02130323,0.859365,-0.09450904, 58.13834, 66.57553, 32.36502
00:01:24.0911831 0.02131299,0.8594401,-0.09416863, 58.21611, 66.61607, 32.45796
00:01:24.1011576 0.02165962,0.8593078,-0.09465212, 58.26239, 66.61976, 32.42312
00:01:24.1121288 0.02075693,0.8593307,-0.09455042, 58.35281, 66.66099, 32.49967
00:01:24.1240969 0.02107385,0.8592168,-0.09500261, 58.39229, 66.69267, 32.48339
00:01:24.1350681 0.02115845,0.8591288,-0.09475848, 58.37498, 66.79615, 32.60227
00:01:24.1470348 0.02041859,0.8590508,-0.09479116, 58.4258, 66.86571, 32.73552
00:01:24.1580064 0.02069516,0.85895,-0.09514934, 58.40448, 66.93353, 32.78145
00:01:24.1699775 0.0206934,0.8590833,-0.0948118, 58.33451, 67.01193, 32.89485
00:01:24.1799775 0.02084691,0.859032,-0.09460132, 58.35021, 67.05574, 32.95018
00:01:24.1919143 0.02041546,0.8589263,-0.09459392, 58.40178, 67.09731, 33.00341
00:01:24.2028855 0.02067993,0.8589656,-0.09494193, 58.47854, 67.176, 33.03412
00:01:24.2138560 0.02074475,0.8589274,-0.09457052, 58.47395, 67.28706, 33.11918
00:01:24.2258238 0.02027364,0.8588526,-0.0944414, 58.47982, 67.34432, 33.18706
00:01:24.2348013 0.02030935,0.8589993,-0.09407832, 58.52636, 67.41591, 33.26582
00:01:24.2466918 0.0199232,0.8589557,-0.09448656, 58.44493, 67.42794, 33.29337
00:01:24.2596318 0.01994441,0.8591192,-0.09408394, 58.47841, 67.47179, 33.37304
00:01:24.2686203 0.0203155,0.8590646,-0.09435756, 58.45534, 67.44469, 33.33344
00:01:24.2805753 0.02037357,0.8590677,-0.09396529, 58.42506, 67.4864, 33.39593
00:01:24.2915469 0.02010008,0.858999,-0.09384199, 58.45307, 67.5023, 33.44175
00:01:24.3035147 0.02030902,0.859013,-0.09406579, 58.50621, 67.52925, 33.43713
00:01:24.3135195 0.01960453,0.8591136,-0.09397604, 58.50358, 67.59472, 33.54927
00:01:24.3244578 0.01982102,0.85917,-0.0941987, 58.55902, 67.63561, 33.57603
00:01:24.3513871 0.01981537,0.8591628,-0.09388909, 58.53885, 67.68829, 33.66227
00:01:24.3573713 0.01931728,0.8591897,-0.09363175, 58.59464, 67.74116, 33.77561
00:01:24.3703537 0.01972054,0.8590571,-0.09380165, 58.57997, 67.71554, 33.77448
00:01:24.3763201 0.01967241,0.8590164,-0.09341362, 58.57775, 67.69326, 33.75766
00:01:24.3872905 0.01896306,0.8590621,-0.09338705, 58.66521, 67.68561, 33.77223
00:01:24.3992591 0.01919963,0.8589472,-0.09370049, 58.70199, 67.69727, 33.73001
00:01:24.4112269 0.018924,0.8588412,-0.0934922, 58.71954, 67.78012, 33.84151
00:01:24.4211992 0.01897193,0.8587598,-0.09323377, 58.73374, 67.83022, 33.90656
00:01:24.4321697 0.01888563,0.8587508,-0.09277207, 58.74988, 67.87189, 33.97834
00:01:24.4441393 0.01896742,0.8587989,-0.09318612, 58.70922, 67.91355, 33.99307
00:01:24.4551087 0.01862613,0.8588659,-0.09294239, 58.78832, 67.93587, 34.04446
00:01:24.4670768 0.01893125,0.8587522,-0.09351142, 58.79803, 67.90281, 33.93878
00:01:24.4770525 0.01851506,0.8584849,-0.09354155, 58.81505, 67.92311, 33.94058
00:01:24.4880419 0.01825046,0.8582979,-0.09313281, 58.86857, 67.96402, 33.94461
00:01:24.4989926 0.01849595,0.8581587,-0.09352161, 58.86924, 67.98046, 33.8944
00:01:24.5109936 0.0177483,0.8583257,-0.09337102, 58.85896, 68.06089, 33.94025
00:01:24.5229286 0.01778051,0.8582573,-0.09350491, 58.90773, 68.15523, 33.96271
00:01:24.5329330 0.0175647,0.8583153,-0.09323651, 58.91098, 68.27193, 34.04916
00:01:24.5438707 0.01715584,0.8582282,-0.09315723, 58.95895, 68.32526, 34.07941
00:01:24.5568388 0.01714171,0.8584581,-0.09284875, 59.05189, 68.35909, 34.08315
00:01:24.5658130 0.01721293,0.8583705,-0.09324444, 59.04432, 68.30305, 33.9568
00:01:24.5778082 0.01644397,0.8582852,-0.09334622, 59.08218, 68.19802, 33.85979
00:01:24.5877889 0.01646546,0.858325,-0.09363469, 59.13684, 68.14487, 33.75371
00:01:24.5997469 0.01646086,0.858183,-0.09338953, 59.13923, 68.16504, 33.76262
00:01:24.6117176 0.01604343,0.8580927,-0.09335226, 59.16919, 68.16373, 33.75921
00:01:24.6216644 0.01611511,0.8581294,-0.09350087, 59.21907, 68.16527, 33.70823
00:01:24.6336319 0.01615069,0.8581027,-0.09314287, 59.19212, 68.21735, 33.76499
00:01:24.6436056 0.01597027,0.8582917,-0.09293284, 59.27159, 68.20869, 33.80178
00:01:24.6555753 0.01607153,0.8582829,-0.09264004, 59.26591, 68.18266, 33.77674
00:01:24.6665760 0.01621334,0.8582525,-0.09324767, 59.21751, 68.15591, 33.71231
00:01:24.6785121 0.01568698,0.8581774,-0.09330609, 59.2225, 68.13119, 33.71514
00:01:24.6894829 0.01588439,0.858279,-0.09358402, 59.27427, 68.11102, 33.69774
00:01:24.7004537 0.01596062,0.858243,-0.09334148, 59.26234, 68.15746, 33.79007
00:01:24.7114238 0.01540895,0.8581867,-0.0930642, 59.29696, 68.18031, 33.88834
00:01:24.7233920 0.01568272,0.8581622,-0.09327683, 59.25895, 68.14713, 33.84538
00:01:24.7343631 0.01564866,0.8582814,-0.09295939, 59.20482, 68.10889, 33.83932
00:01:24.7465884 0.01529458,0.8583571,-0.09271384, 59.23874, 68.05607, 33.81643
00:01:24.7565947 0.01559454,0.858299,-0.09295436, 59.22709, 67.99506, 33.71463
00:01:24.7685307 0.01558245,0.8583707,-0.09270892, 59.20558, 68.00913, 33.73658
00:01:24.7785031 0.01522182,0.8583291,-0.09267694, 59.22779, 68.08838, 33.82042
00:01:24.7904997 0.01537765,0.8582832,-0.09301331, 59.2561, 68.12979, 33.82127
00:01:24.8014421 0.0153471,0.8584114,-0.09270383, 59.20649, 68.20117, 33.91455
00:01:24.8114155 0.01467938,0.8584204,-0.09260145, 59.24345, 68.21842, 33.95793
00:01:24.8223863 0.01498563,0.8584239,-0.09283289, 59.21708, 68.1765, 33.87615
00:01:24.8343541 0.01497966,0.8584487,-0.09255215, 59.17398, 68.16022, 33.84924
00:01:24.8463238 0.0148534,0.8584631,-0.09245291, 59.19041, 68.11314, 33.82603
00:01:24.8572931 0.01510165,0.858591,-0.09284564, 59.21275, 68.04341, 33.72045
00:01:24.8682643 0.0150903,0.858638,-0.09257501, 59.18224, 68.03382, 33.72055
00:01:24.8802314 0.01427379,0.8586227,-0.0925605, 59.22445, 68.04601, 33.76316
00:01:24.8912025 0.01452362,0.858573,-0.09282161, 59.20932, 68.0294, 33.70876
00:01:24.9041670 0.01458939,0.8584725,-0.09261501, 59.18093, 68.05409, 33.74277
00:01:24.9151382 0.01442974,0.8584405,-0.09245781, 59.20114, 68.05341, 33.77695
00:01:24.9271220 0.01455349,0.8585295,-0.09265719, 59.22563, 68.03426, 33.73551
00:01:24.9370787 0.01410062,0.858596,-0.09252455, 59.21031, 68.03734, 33.76429
00:01:24.9500443 0.01400157,0.8587143,-0.09216943, 59.25612, 68.04858, 33.77741
00:01:24.9610180 0.0142869,0.8586758,-0.09258124, 59.24397, 67.98015, 33.67054
00:01:24.9739821 0.01424928,0.8587124,-0.09228577, 59.22061, 67.96251, 33.65854
00:01:24.9829570 0.01410297,0.8587096,-0.09217704, 59.2333, 67.93227, 33.65253
00:01:24.9949241 0.01380853,0.8585955,-0.09165739, 59.25521, 67.96468, 33.7031
00:01:25.0058957 0.01393901,0.8585768,-0.09183257, 59.21196, 67.95069, 33.66825
00:01:25.0178649 0.01342827,0.8585427,-0.09158967, 59.24514, 67.94231, 33.69831
00:01:25.0288343 0.0135185,0.8585989,-0.0921468, 59.20349, 67.91323, 33.63083
00:01:25.0398044 0.01319449,0.8585566,-0.09213737, 59.21336, 67.88637, 33.61725
00:01:25.0507879 0.01321149,0.8588058,-0.09187963, 59.27098, 67.87295, 33.61949
00:01:25.0617471 0.0134256,0.8587755,-0.09220839, 59.26558, 67.84861, 33.55529
00:01:25.0737134 0.01278299,0.85883,-0.09219518, 59.25378, 67.8643, 33.60833
00:01:25.0836872 0.01250497,0.8588067,-0.09180885, 59.27687, 67.90032, 33.65939
00:01:25.0956901 0.01273368,0.858803,-0.09205984, 59.25064, 67.86261, 33.59079
00:01:25.1066269 0.01274323,0.8588071,-0.09181774, 59.21074, 67.88702, 33.62972